[{"make":"Kia","model":"Optima","year":2020,"price":23006}
{"make":"Ford","model":"Focus","year":2021,"price":17568}
{"make":"Chevrolet","model":"Malibu","year":2022,"price":20463}
{"make":"Subaru","model":"Impreza","year":2021,"price":28440}
{"make":"Ford","model":"Focus","year":2022,"price":17027}
{"make":"Mazda","model":"three","year":2020,"price":17695}
{"make":"Subaru","model":"Impreza","year":2021,"price":24687}
{"make":"Mazda","model":"three","year":2018,"price":20258}
{"make":"Hyundai","model":"Elantra","year":2015,"price":20618}
{"make":"Ford","model":"Focus","year":2020,"price":21736}
{"make":"Chevrolet","model":"Malibu","year":2022,"price":15391}
{"make":"Kia","model":"Optima","year":2019,"price":28986}
{"make":"Volkswagen","model":"Jetta","year":2022,"price":27706}
{"make":"Honda","model":"Civic","year":2019,"price":29624}
{"make":"Toyota","model":"Corolla","year":2016,"price":27666}
{"make":"Chevrolet","model":"Malibu","year":2021,"price":20892}
{"make":"Ford","model":"Focus","year":2019,"price":18561}
{"make":"Volkswagen","model":"Jetta","year":2022,"price":25470}
{"make":"Chevrolet","model":"Malibu","year":2016,"price":21184}
{"make":"Ford","model":"Focus","year":2015,"price":18099}
{"make":"Nissan","model":"Sentra","year":2018,"price":21278}
{"make":"Nissan","model":"Sentra","year":2018,"price":23392}
{"make":"Mazda","model":"three","year":2018,"price":29151}
{"make":"Chevrolet","model":"Malibu","year":2019,"price":28067}
{"make":"Nissan","model":"Sentra","year":2015,"price":18104}
{"make":"Ford","model":"Focus","year":2019,"price":22215}
{"make":"Mazda","model":"three","year":2021,"price":27790}
{"make":"Ford","model":"Focus","year":2019,"price":17454}
{"make":"Mazda","model":"three","year":2015,"price":26837}
{"make":"Chevrolet","model":"Malibu","year":2015,"price":29039}]